<?xml version="1.0" encoding="utf-8"?>
<!-- Generator: Adobe Illustrator 21.1.0, SVG Export Plug-In . SVG Version: 6.00 Build 0)  -->
<svg version="1.2" baseProfile="tiny" id="logo" xmlns="http://www.w3.org/2000/svg" xmlns:xlink="http://www.w3.org/1999/xlink"
	 x="0px" y="0px" viewBox="0 0 96.2 62.3" xml:space="preserve">
<g>
	<g>
		<path fill="#F9BE00" d="M80.5,54.1c0.8,0.2,1.5,0.4,2.1,0.6c2.8,0.9,3.7,1.1,7.2-1.2c1-0.7,1.9-1.2,2.8-1.7c1.1-0.6,2.1-1,3.2-1.4
			c-1.8-3.2-6.1-9.1-9.7-12.6L75.7,53.5c0.3-0.1,0.6-0.1,1-0.1C77.7,53.4,78.9,53.6,80.5,54.1z"/>
		<path fill="#F9BE00" d="M55.7,61.4c1.1,0.1,2.2,0,3.3-0.1l11.9-27.9c-3.2-1.9-6.1-3.2-9.7-4.4L55.7,61.4z"/>
		<path fill="#F9BE00" d="M37.2,21.2l7.2,35.5c1.1,0.9,2.3,1.7,3.5,2.4l1-39.6C45.3,19.6,41.1,20.2,37.2,21.2z"/>
		<path fill="#F9BE00" d="M14.4,37.8l5.4,7.6c1.8-0.4,3.3,0,4.5,1.3c0.6,0.6,1.1,1.3,1.6,1.9c1.9,2.3,2.9,3.3,4.2,2.8l0.7-0.3
			c0.4-0.2,0.7-0.3,1.1-0.5l-8.5-20.9C19.9,32.1,17.2,34.6,14.4,37.8z"/>
		<path fill="#FFDE92" d="M62.3,60.5c2.3-0.5,6.4-2.9,8.4-4.3l19.8-30c-2.9-3.4-6.2-6.3-9.8-8.8L62.3,60.5z"/>
		<path fill="#FFDE92" d="M1.2,47.5l6.1,5.6c3.3-2.2,5.9-4.1,10-6.6L8.4,34C5.3,38.1,2.9,42.6,1.2,47.5z"/>
		<path fill="#FFDE92" d="M52,1.6l-1.5,58.7c0.8,0.3,1.7,0.6,2.5,0.7l9.8-57.9C59.3,2.2,55.7,1.7,52,1.6z"/>
		<path fill="#FFDE92" d="M22.6,20.2l12,29.6c1.4-0.2,3.2,0,4.7,1.5c0.2,0.2,1.2,1.6,1.7,2.1l-7.7-38C29.5,16.6,25.9,18.2,22.6,20.2
			z"/>
	</g>
</g>
</svg>
